…
<!-------------------------- Start your work below ---------------------------->

    nperyear <-extractyear %>%
       filter(year<=2019)%>%  #Since games published after 2020 maybe not well collected, so I filter out all games after 2020
       group_by(year)%>%
       summarise(n=n())

    ## `summarise()` ungrouping output (override with `.groups` argument)

    fit <- lm(log(n) ~ year,data=nperyear)  # The increment is close to a exponential function
    augment(fit)

    ## # A tibble: 38 x 7
    ##    `log(n)`  year .fitted .std.resid   .hat .sigma .cooksd
    ##       <dbl> <dbl>   <dbl>      <dbl>  <dbl>  <dbl>   <dbl>
    ##  1    0      1981  -0.347      0.667 0.109   0.555 0.0271 
    ##  2    0      1983   0.113     -0.215 0.0926  0.558 0.00235
    ##  3    0.693  1984   0.343      0.665 0.0852  0.555 0.0206 
    ##  4    0      1985   0.572     -1.08  0.0783  0.550 0.0497 
    ##  5    0      1986   0.802     -1.51  0.0718  0.541 0.0883 
    ##  6    1.39   1987   1.03       0.665 0.0657  0.555 0.0156 
    ##  7    1.61   1988   1.26       0.651 0.0601  0.555 0.0135 
    ##  8    1.79   1989   1.49       0.560 0.0549  0.556 0.00911
    ##  9    2.20   1990   1.72       0.886 0.0501  0.553 0.0207 
    ## 10    2.08   1991   1.95       0.238 0.0458  0.558 0.00136
    ## # ... with 28 more rows
…
