…
    nperyear <-steam_games %>%
      filter(!is.na(release_date)& as.matrix(release_date)!="NaN")%>%  #remove all rows with NA or NaN values
       mutate(year=strtoi(unlist(strsplit(release_date,","))[2*(1:length(release_date)) ])) %>%#Since all date are given by string, in form of "May 12, 2016". I first split the date into 2 strings separated by ",", then store the even to a new variable "year".
       filter(year<=2019)%>%  #Since games published after 2020 maybe not well collected, so I filter out all games after 2020
       group_by(year)%>%
       summarise(n=n())

    ## `summarise()` ungrouping output (override with `.groups` argument)

    nperyear

    ## # A tibble: 36 x 2
    ##     year     n
    ##    <int> <int>
    ##  1  1981     1
    ##  2  1984     1
    ##  3  1985     1
    ##  4  1987     2
    ##  5  1988     4
    ##  6  1989     3
    ##  7  1990     4
    ##  8  1991     4
    ##  9  1992     4
    ## 10  1993    14
    ## # ... with 26 more rows
…
    tones <-steam_games %>%
    # remove all lines that is "NA" or "NaN" in all_reviews
      filter(!is.na(all_reviews)& as.matrix(all_reviews)!="NaN") %>% 
       select(name,genre,all_reviews)%>% 
    # There are 3 groups based on the *all_reviews* variable
       mutate(
        tone = case_when(
          str_detect(all_reviews, "Very Positive") ~ "Very Positive",
          str_detect(all_reviews, "Mostly Positive") ~ "Mostly Positive",
          str_detect(all_reviews, "Mixed") ~ "Mixed"
        )
      )
    tones

    ## # A tibble: 28,470 x 4
    ##    name          genre                 all_reviews                      tone    
    ##    <chr>         <chr>                 <chr>                            <chr>   
    ##  1 DOOM          Action                Very Positive,(42,550),- 92% of~ Very Po~
    ##  2 PLAYERUNKNOW~ Action,Adventure,Mas~ Mixed,(836,608),- 49% of the 83~ Mixed   
    ##  3 BATTLETECH    Action,Adventure,Str~ Mostly Positive,(7,030),- 71% o~ Mostly ~
    ##  4 DayZ          Action,Adventure,Mas~ Mixed,(167,115),- 61% of the 16~ Mixed   
    ##  5 EVE Online    Action,Free to Play,~ Mostly Positive,(11,481),- 74% ~ Mostly ~
    ##  6 Devil May Cr~ Action                Very Positive,(9,645),- 92% of ~ Very Po~
    ##  7 Human: Fall ~ Adventure,Indie       Very Positive,(23,763),- 91% of~ Very Po~
    ##  8 They Are Bil~ Strategy,Early Access Very Positive,(12,127),- 85% of~ Very Po~
    ##  9 Warhammer: C~ Action,Adventure,RPG  Mixed,(904),- 44% of the 904 us~ Mixed   
    ## 10 For The King  Adventure,Indie,RPG,~ Very Positive,(4,600),- 83% of ~ Very Po~
    ## # ... with 28,460 more rows
…
    ## `summarise()` regrouping output by 'year' (override with `.groups` argument)

    discounted

    ## # A tibble: 56 x 7
    ## # Groups:   year [28]
    ##     year mean_original min_original max_original median_original qs_original
    ##    <int>         <dbl>        <dbl>        <dbl>           <dbl>       <dbl>
    ##  1  1988         30.0         30.0         30.0            30.0        30.0 
    ##  2  1988         30.0         30.0         30.0            30.0        30.0 
    ##  3  1989          5.99         5.99         5.99            5.99        5.99
    ##  4  1989          5.99         5.99         5.99            5.99        5.99
    ##  5  1993         64.9         64.9         64.9            64.9        64.9 
    ##  6  1993         64.9         64.9         64.9            64.9        64.9 
    ##  7  1995         16.4          2.99        40.0            13.9         9.99
    ##  8  1995         16.4          2.99        40.0            13.9        15.0 
    ##  9  1996        169.           1.99       502.             86.8         3.49
    ## 10  1996        169.           1.99       502.             86.8       253.  
    ## # ... with 46 more rows, and 1 more variable: mean_discount <dbl>
…
### 2.1 (2.5 points)

Based on the definition above, can you identify if your data is tidy or
untidy? Go through all your columns, or if you have &gt;8 variables,
just pick 8, and explain whether the data is untidy or tidy.

<!--------------------------- Start your work below --------------------------->

Based on my research questions, I will choose 8 related columns for
tasks in this part.

    (eight_columns <-steam_games %>%
       select(id,name,genre, achievements,release_date,developer,original_price,discount_price))

    ## # A tibble: 40,833 x 8
    ##       id name  genre achievements release_date developer original_price
    ##    <dbl> <chr> <chr>        <dbl> <chr>        <chr>              <dbl>
    ##  1     1 DOOM  Acti~           54 May 12, 2016 id Softw~           20.0
    ##  2     2 PLAY~ Acti~           37 Dec 21, 2017 PUBG Cor~           30.0
    ##  3     3 BATT~ Acti~          128 Apr 24, 2018 Harebrai~           40.0
    ##  4     4 DayZ  Acti~           NA Dec 13, 2018 Bohemia ~           45.0
    ##  5     5 EVE ~ Acti~           NA May 6, 2003  CCP                  0  
    ##  6     6 Gran~ Acti~           NA NaN          Rockstar~           NA  
    ##  7     7 Devi~ Acti~           51 Mar 7, 2019  CAPCOM C~           60.0
    ##  8     8 Huma~ Adve~           55 Jul 22, 2016 No Brake~           15.0
    ##  9     9 They~ Stra~           34 Dec 12, 2017 Numantia~           30.0
    ## 10    10 Warh~ Acti~           43 May 31, 2019 Eko Soft~           50.0
    ## # ... with 40,823 more rows, and 1 more variable: discount_price <dbl>
…
If your data is untidy, then tidy it! Then, untidy it back to it’s
original state.

Be sure to explain your reasoning for this task. Show us the “before”
and “after”.

<!--------------------------- Start your work below --------------------------->

-   Before tidying:

<!-- -->

    print(eight_columns,options(pillar.min_chars = Inf))

    ## # A tibble: 40,833 x 8
    ##       id name  genre achievements release_date developer original_price
    ##    <dbl> <chr> <chr>        <dbl> <chr>        <chr>              <dbl>
    ##  1     1 DOOM  Acti~           54 May 12, 2016 id Softw~           20.0
    ##  2     2 PLAY~ Acti~           37 Dec 21, 2017 PUBG Cor~           30.0
    ##  3     3 BATT~ Acti~          128 Apr 24, 2018 Harebrai~           40.0
    ##  4     4 DayZ  Acti~           NA Dec 13, 2018 Bohemia ~           45.0
    ##  5     5 EVE ~ Acti~           NA May 6, 2003  CCP                  0  
    ##  6     6 Gran~ Acti~           NA NaN          Rockstar~           NA  
    ##  7     7 Devi~ Acti~           51 Mar 7, 2019  CAPCOM C~           60.0
    ##  8     8 Huma~ Adve~           55 Jul 22, 2016 No Brake~           15.0
    ##  9     9 They~ Stra~           34 Dec 12, 2017 Numantia~           30.0
    ## 10    10 Warh~ Acti~           43 May 31, 2019 Eko Soft~           50.0
    ## # ... with 40,823 more rows, and 1 more variable: discount_price <dbl>
…
We can see in column *genre* of rows 2,3,4 and 5,the cells contain more
than a “value”, which makes it not a tidy data.

-   After tidying:

<!-- -->

    tidy_data1 <- eight_columns %>%
       separate_rows(genre, convert = TRUE) # separate_rows is a function included in tidyr
    print(tidy_data1,options(pillar.min_chars = Inf))

    ## # A tibble: 119,061 x 8
    ##       id name  genre achievements release_date developer original_price
    ##    <dbl> <chr> <chr>        <dbl> <chr>        <chr>              <dbl>
    ##  1     1 DOOM  Acti~           54 May 12, 2016 id Softw~           20.0
    ##  2     2 PLAY~ Acti~           37 Dec 21, 2017 PUBG Cor~           30.0
    ##  3     2 PLAY~ Adve~           37 Dec 21, 2017 PUBG Cor~           30.0
    ##  4     2 PLAY~ Mass~           37 Dec 21, 2017 PUBG Cor~           30.0
    ##  5     2 PLAY~ Mult~           37 Dec 21, 2017 PUBG Cor~           30.0
    ##  6     3 BATT~ Acti~          128 Apr 24, 2018 Harebrai~           40.0
    ##  7     3 BATT~ Adve~          128 Apr 24, 2018 Harebrai~           40.0
    ##  8     3 BATT~ Stra~          128 Apr 24, 2018 Harebrai~           40.0
    ##  9     4 DayZ  Acti~           NA Dec 13, 2018 Bohemia ~           45.0
    ## 10     4 DayZ  Adve~           NA Dec 13, 2018 Bohemia ~           45.0
    ## # ... with 119,051 more rows, and 1 more variable: discount_price <dbl>
…
We can see that those cells are separated into multiple rows. Now, each
cell contains only one “value”, which make data tidier than before.

To untidy it back to original state:

    tidy_data2 <- tidy_data1 %>%
       group_by(id,name, achievements,release_date,developer,original_price,discount_price) %>% 
       summarise(genre  = paste(genre, collapse =","))

    ## `summarise()` regrouping output by 'id', 'name', 'achievements', 'release_date', 'developer', 'original_price' (override with `.groups` argument)

    print(tidy_data2,options(pillar.min_chars = Inf))

    ## # A tibble: 40,833 x 8
    ## # Groups:   id, name, achievements, release_date, developer, original_price
    ## #   [40,833]
    ##       id name  achievements release_date developer original_price discount_price
    ##    <dbl> <chr>        <dbl> <chr>        <chr>              <dbl>          <dbl>
    ##  1     1 DOOM            54 May 12, 2016 id Softw~           20.0           15.0
    ##  2     2 PLAY~           37 Dec 21, 2017 PUBG Cor~           30.0           NA  
    ##  3     3 BATT~          128 Apr 24, 2018 Harebrai~           40.0           NA  
    ##  4     4 DayZ            NA Dec 13, 2018 Bohemia ~           45.0           NA  
    ##  5     5 EVE ~           NA May 6, 2003  CCP                  0             NA  
    ##  6     6 Gran~           NA NaN          Rockstar~           NA             35.2
    ##  7     7 Devi~           51 Mar 7, 2019  CAPCOM C~           60.0           70.4
    ##  8     8 Huma~           55 Jul 22, 2016 No Brake~           15.0           17.6
    ##  9     9 They~           34 Dec 12, 2017 Numantia~           30.0           NA  
    ## 10    10 Warh~           43 May 31, 2019 Eko Soft~           50.0           NA  
    ## # ... with 40,823 more rows, and 1 more variable: genre <chr>
…
