…
-   q7. Make a new tibble with a subset of your data, with variables and
    observations that you are interested in exploring.

I will make a subset of the dataset which are not missing
“resent\_reviews” or “all\_reviews”. Since I am going to explore the
relationship between reviews and the other variables, a game without
given reviews is useless, so I will remove those rows.

    # remove all lines that is "NA" in recent_reviews
    useful_subset <- filter(steam_games, !is.na(recent_reviews))
    # remove all lines that is "NA" in all_reviews
    useful_subset <- filter(useful_subset, !is.na(all_reviews))
    useful_subset

    ## # A tibble: 5,510 x 21
    ##       id url   types name  desc_snippet recent_reviews all_reviews release_date
    ##    <dbl> <chr> <chr> <chr> <chr>        <chr>          <chr>       <chr>       
    ##  1     1 http~ app   DOOM  Now include~ Very Positive~ Very Posit~ May 12, 2016
    ##  2     2 http~ app   PLAY~ PLAYERUNKNO~ Mixed,(6,214)~ Mixed,(836~ Dec 21, 2017
    ##  3     3 http~ app   BATT~ Take comman~ Mixed,(166),-~ Mostly Pos~ Apr 24, 2018
    ##  4     4 http~ app   DayZ  The post-so~ Mixed,(932),-~ Mixed,(167~ Dec 13, 2018
    ##  5     5 http~ app   EVE ~ EVE Online ~ Mixed,(287),-~ Mostly Pos~ May 6, 2003 
    ##  6     6 http~ bund~ Gran~ Grand Theft~ NaN            NaN         NaN         
    ##  7     7 http~ app   Devi~ The ultimat~ Very Positive~ Very Posit~ Mar 7, 2019 
    ##  8     8 http~ app   Huma~ Human: Fall~ Very Positive~ Very Posit~ Jul 22, 2016
    ##  9     9 http~ app   They~ They Are Bi~ Very Positive~ Very Posit~ Dec 12, 2017
    ## 10    11 http~ app   For ~ For The Kin~ Very Positive~ Very Posit~ Apr 19, 2018
    ## # ... with 5,500 more rows, and 13 more variables: developer <chr>,
    ## #   publisher <chr>, popular_tags <chr>, game_details <chr>, languages <chr>,
    ## #   achievements <dbl>, genre <chr>, game_description <chr>,
    ## #   mature_content <chr>, minimum_requirements <chr>,
    ## #   recommended_requirements <chr>, original_price <dbl>, discount_price <dbl>

-   q5. Filter observations in your data according to your own criteria.

I will filter all games with “very positive reviews” in all\_reviews. I
am curious about the common features among positive-reviewed games, so I
need to filter these games into a subset first for further exploration.

    # Filter all rows which contain "very positive reviews" in column of "all_reviews"
    # "grepl" is the Pattern Matching And Replacement function developed  "R-core R-core@R-project.org"
    positive_games <- filter(steam_games,str_detect(all_reviews,"Very Positive"))
    positive_games

    ## # A tibble: 4,539 x 21
    ##       id url   types name  desc_snippet recent_reviews all_reviews release_date
    ##    <dbl> <chr> <chr> <chr> <chr>        <chr>          <chr>       <chr>       
    ##  1     1 http~ app   DOOM  Now include~ Very Positive~ Very Posit~ May 12, 2016
    ##  2     7 http~ app   Devi~ The ultimat~ Very Positive~ Very Posit~ Mar 7, 2019 
    ##  3     8 http~ app   Huma~ Human: Fall~ Very Positive~ Very Posit~ Jul 22, 2016
    ##  4     9 http~ app   They~ They Are Bi~ Very Positive~ Very Posit~ Dec 12, 2017
    ##  5    11 http~ app   For ~ For The Kin~ Very Positive~ Very Posit~ Apr 19, 2018
    ##  6    12 http~ app   Dang~ A new cast ~ Very Positive~ Very Posit~ Sep 25, 2017
    ##  7    17 http~ app   Clon~ Clone Drone~ Very Positive~ Very Posit~ Mar 16, 2017
    ##  8    20 http~ app   Halo~ Halo Wars: ~ Very Positive~ Very Posit~ Apr 20, 2017
    ##  9    21 http~ app   Call~ The biggest~ Mixed,(56),- ~ Very Posit~ Nov 9, 2010 
    ## 10    22 http~ app   Phoe~ Become Phoe~ Very Positive~ Very Posit~ Apr 9, 2019 
    ## # ... with 4,529 more rows, and 13 more variables: developer <chr>,
    ## #   publisher <chr>, popular_tags <chr>, game_details <chr>, languages <chr>,
    ## #   achievements <dbl>, genre <chr>, game_description <chr>,
    ## #   mature_content <chr>, minimum_requirements <chr>,
    ## #   recommended_requirements <chr>, original_price <dbl>, discount_price <dbl>
…
